\beamer@sectionintoc {2}{Context and Objective}{3}{0}{1}
\beamer@sectionintoc {3}{Methodology and Application}{4}{0}{2}
\beamer@sectionintoc {4}{Project Schedule}{6}{0}{3}
\beamer@sectionintoc {5}{Results}{7}{0}{4}
\beamer@sectionintoc {6}{Project Schedule}{20}{0}{5}
\beamer@sectionintoc {7}{Conclusions and Future Work}{21}{0}{6}
\beamer@sectionintoc {8}{References}{22}{0}{7}
