\relax 
\providecommand\hyper@newdestlabel[2]{}
\providecommand\HyperFirstAtBeginDocument{\AtBeginDocument}
\HyperFirstAtBeginDocument{\ifx\hyper@anchor\@undefined
\global\let\oldcontentsline\contentsline
\gdef\contentsline#1#2#3#4{\oldcontentsline{#1}{#2}{#3}}
\global\let\oldnewlabel\newlabel
\gdef\newlabel#1#2{\newlabelxx{#1}#2}
\gdef\newlabelxx#1#2#3#4#5#6{\oldnewlabel{#1}{{#2}{#3}}}
\AtEndDocument{\ifx\hyper@anchor\@undefined
\let\contentsline\oldcontentsline
\let\newlabel\oldnewlabel
\fi}
\fi}
\global\let\hyper@last\relax 
\gdef\HyperFirstAtBeginDocument#1{#1}
\providecommand\HyField@AuxAddToFields[1]{}
\providecommand\HyField@AuxAddToCoFields[2]{}
\citation{tu2018computational}
\citation{ford2004nonhydrostatic}
\citation{guo2015developing}
\citation{walshaw1997dynamic}
\citation{guo2010high}
\citation{pain2008fluidity}
\citation{boman2007zoltan}
\citation{zhang2019petsc}
\citation{schroeder2004visualization}
\citation{guo2010high}
\@writefile{toc}{\contentsline {section}{\numberline {I}Introduction}{1}{section.1}}
\newlabel{sec:org89246f9}{{I}{1}{Introduction}{section.1}{}}
\@writefile{toc}{\contentsline {section}{\numberline {II}The Fluidity Application}{1}{section.2}}
\newlabel{sec:orgcf91944}{{II}{1}{The Fluidity Application}{section.2}{}}
\citation{HENRIE201657}
\citation{versteeg2007introduction}
\citation{versteeg2007introduction}
\citation{reynoldsnumbersnasa}
\citation{pain2008fluidity}
\citation{guo2015developing}
\citation{capon1996adaptive}
\citation{darmawan2016backward}
\citation{pain2008fluidity}
\citation{darmawan2016backward}
\citation{pain2008fluidity}
\citation{pain2008fluidity}
\citation{wang2019experimental}
\citation{pain2008fluidity}
\@writefile{toc}{\contentsline {subsection}{\numberline {\unhbox \voidb@x \hbox {II-A}}Numerical Method}{2}{subsection.2.1}}
\newlabel{sec:org20971eb}{{\unhbox \voidb@x \hbox {II-A}}{2}{Numerical Method}{subsection.2.1}{}}
\@writefile{toc}{\contentsline {subsection}{\numberline {\unhbox \voidb@x \hbox {II-B}}Parallelization}{2}{subsection.2.2}}
\newlabel{sec:org8eb5d57}{{\unhbox \voidb@x \hbox {II-B}}{2}{Parallelization}{subsection.2.2}{}}
\@writefile{toc}{\contentsline {subsection}{\numberline {\unhbox \voidb@x \hbox {II-C}}Study Cases}{2}{subsection.2.3}}
\newlabel{sec:org9ab9572}{{\unhbox \voidb@x \hbox {II-C}}{2}{Study Cases}{subsection.2.3}{}}
\newlabel{sec:org5947352}{{\unhbox \voidb@x \hbox {II-C}1}{2}{Backward Facing Step (BFS)}{subsubsection.2.3.1}{}}
\@writefile{toc}{\contentsline {subsubsection}{\numberline {\unhbox \voidb@x \hbox {II-C}1}Backward Facing Step (BFS)}{2}{subsubsection.2.3.1}}
\@writefile{lof}{\contentsline {figure}{\numberline {1}{\ignorespaces  Vertical slices of Backward Facing Step at 5, 25 and 50 time units of the 3D simulation \cite  {pain2008fluidity}.}}{2}{figure.1}}
\newlabel{fig:org522df20}{{1}{2}{Vertical slices of Backward Facing Step at 5, 25 and 50 time units of the 3D simulation \cite {pain2008fluidity}}{figure.1}{}}
\citation{pain2008fluidity}
\citation{pain2008fluidity}
\citation{kurtzer2017singularity}
\citation{kurtzer2017singularity}
\citation{knupfer2012score}
\newlabel{sec:org3fee929}{{\unhbox \voidb@x \hbox {II-C}2}{3}{Flow Past Sphere (FPS)}{subsubsection.2.3.2}{}}
\@writefile{toc}{\contentsline {subsubsection}{\numberline {\unhbox \voidb@x \hbox {II-C}2}Flow Past Sphere (FPS)}{3}{subsubsection.2.3.2}}
\@writefile{lof}{\contentsline {figure}{\numberline {2}{\ignorespaces  Surface mesh in the Flow Past Sphere example \cite  {pain2008fluidity}.}}{3}{figure.2}}
\newlabel{fig:org35a148c}{{2}{3}{Surface mesh in the Flow Past Sphere example \cite {pain2008fluidity}}{figure.2}{}}
\@writefile{toc}{\contentsline {section}{\numberline {III}Experimental Design}{3}{section.3}}
\newlabel{sec:org74127ff}{{III}{3}{Experimental Design}{section.3}{}}
\@writefile{lof}{\contentsline {figure}{\numberline {3}{\ignorespaces  Analysis workflow used in this characterization work}}{3}{figure.3}}
\newlabel{fig:org8342ad8}{{3}{3}{Analysis workflow used in this characterization work}{figure.3}{}}
\@writefile{toc}{\contentsline {section}{\numberline {IV}Profiling and Performance Analysis}{3}{section.4}}
\newlabel{sec:org6244c88}{{IV}{3}{Profiling and Performance Analysis}{section.4}{}}
\@writefile{lof}{\contentsline {figure}{\numberline {4}{\ignorespaces  Speedup of Backward Facing Step and Flow Past Sphere study cases.}}{4}{figure.4}}
\newlabel{fig:orga6bbb90}{{4}{4}{Speedup of Backward Facing Step and Flow Past Sphere study cases}{figure.4}{}}
\@writefile{lof}{\contentsline {figure}{\numberline {5}{\ignorespaces  Average executing time of Backward Facing Step and Flow Past Sphere study cases.}}{4}{figure.5}}
\newlabel{fig:org6e89eb2}{{5}{4}{Average executing time of Backward Facing Step and Flow Past Sphere study cases}{figure.5}{}}
\@writefile{lof}{\contentsline {figure}{\numberline {6}{\ignorespaces  MPI Operations per Rank on Flow Past Sphere benchmark}}{4}{figure.6}}
\newlabel{fig:org2b05e3f}{{6}{4}{MPI Operations per Rank on Flow Past Sphere benchmark}{figure.6}{}}
\@writefile{lof}{\contentsline {figure}{\numberline {7}{\ignorespaces  Most time consuming MPI Collective operations in Fluidity with Flow Past Sphere.}}{4}{figure.7}}
\newlabel{fig:org4e6bbcc}{{7}{4}{Most time consuming MPI Collective operations in Fluidity with Flow Past Sphere}{figure.7}{}}
\@writefile{lof}{\contentsline {figure}{\numberline {8}{\ignorespaces Application signature with 8 Ranks of Backward Facing Step study case.}}{5}{figure.8}}
\newlabel{fig:signature-back-8}{{8}{5}{Application signature with 8 Ranks of Backward Facing Step study case}{figure.8}{}}
\@writefile{lof}{\contentsline {figure}{\numberline {9}{\ignorespaces The First Occurence of Adaptivity Remash on Backward Facing Step case.}}{5}{figure.9}}
\newlabel{fig:adaptivity-back-8}{{9}{5}{The First Occurence of Adaptivity Remash on Backward Facing Step case}{figure.9}{}}
\citation{guo2010high}
\@writefile{toc}{\contentsline {section}{\numberline {V}Related Work}{6}{section.5}}
\newlabel{sec:org2bbe549}{{V}{6}{Related Work}{section.5}{}}
\@writefile{lof}{\contentsline {figure}{\numberline {10}{\ignorespaces Application signature with 8 Ranks of Flow Past Sphere study case.}}{6}{figure.10}}
\newlabel{fig:signature-flow-8}{{10}{6}{Application signature with 8 Ranks of Flow Past Sphere study case}{figure.10}{}}
\@writefile{lof}{\contentsline {figure}{\numberline {11}{\ignorespaces The First Occurence of Adaptivity Remash on Flow Past Sphere case.}}{6}{figure.11}}
\newlabel{fig:adaptivity-flow-8}{{11}{6}{The First Occurence of Adaptivity Remash on Flow Past Sphere case}{figure.11}{}}
\citation{guo2015developing}
\bibstyle{IEEEtran}
\bibdata{refs}
\bibcite{tu2018computational}{1}
\bibcite{ford2004nonhydrostatic}{2}
\bibcite{guo2015developing}{3}
\bibcite{walshaw1997dynamic}{4}
\bibcite{guo2010high}{5}
\bibcite{pain2008fluidity}{6}
\bibcite{boman2007zoltan}{7}
\bibcite{zhang2019petsc}{8}
\bibcite{schroeder2004visualization}{9}
\bibcite{HENRIE201657}{10}
\bibcite{versteeg2007introduction}{11}
\bibcite{reynoldsnumbersnasa}{12}
\bibcite{capon1996adaptive}{13}
\bibcite{darmawan2016backward}{14}
\bibcite{wang2019experimental}{15}
\bibcite{kurtzer2017singularity}{16}
\bibcite{knupfer2012score}{17}
\@writefile{toc}{\contentsline {section}{\numberline {VI}Conclusion and Future Work}{7}{section.6}}
\newlabel{sec:org1cc9378}{{VI}{7}{Conclusion and Future Work}{section.6}{}}
\@writefile{toc}{\contentsline {section}{References}{7}{section*.2}}
