This is BibTeX, Version 0.99d (TeX Live 2017/Debian)
Capacity: max_strings=100000, hash_size=100000, hash_prime=85009
The top-level auxiliary file: ieee.aux
The style file: IEEEtran.bst
Reallocated singl_function (elt_size=4) to 100 items from 50.
Reallocated singl_function (elt_size=4) to 100 items from 50.
Reallocated singl_function (elt_size=4) to 100 items from 50.
Reallocated wiz_functions (elt_size=4) to 6000 items from 3000.
Reallocated singl_function (elt_size=4) to 100 items from 50.
Database file #1: refs.bib
-- IEEEtran.bst version 1.14 (2015/08/26) by Michael Shell.
-- http://www.michaelshell.org/tex/ieeetran/bibtex/
-- See the "IEEEtran_bst_HOWTO.pdf" manual for usage information.
Warning--missing publisher in tu2018computational

Done.
You've used 17 entries,
            4087 wiz_defined-function locations,
            920 strings with 10952 characters,
and the built_in function-call counts, 11102 in all, are:
= -- 843
> -- 348
< -- 54
+ -- 172
- -- 74
* -- 528
:= -- 1698
add.period$ -- 35
call.type$ -- 17
change.case$ -- 16
chr.to.int$ -- 108
cite$ -- 18
duplicate$ -- 836
empty$ -- 933
format.name$ -- 91
if$ -- 2564
int.to.chr$ -- 0
int.to.str$ -- 17
missing$ -- 168
newline$ -- 78
num.names$ -- 19
pop$ -- 440
preamble$ -- 1
purify$ -- 0
quote$ -- 2
skip$ -- 857
stack$ -- 0
substring$ -- 288
swap$ -- 621
text.length$ -- 18
text.prefix$ -- 0
top$ -- 5
type$ -- 17
warning$ -- 1
while$ -- 39
width$ -- 19
write$ -- 177
(There was 1 warning)
